digraph "Current module groupings" {
    node [margin="0.4,0.1"
         ,style=filled];
    subgraph "cluster_MOS6502-Addressing" {
        graph [label="MOS6502.Addressing"
              ,style=filled
              ,fillcolor=lavender];
        1 [label="@+"
          ,shape=box
          ,fillcolor=goldenrod
          ,style="filled,solid"];
        2 [label=ab
          ,shape=box
          ,fillcolor=goldenrod
          ,style="filled,solid"];
        3 [label=abx
          ,shape=box
          ,fillcolor=goldenrod
          ,style="filled,solid"];
        4 [label=aby
          ,shape=box
          ,fillcolor=goldenrod
          ,style="filled,solid"];
        5 [label=aplus
          ,shape=box
          ,fillcolor=goldenrod
          ,style="filled,solid"];
        6 [label=imm
          ,shape=box
          ,fillcolor=goldenrod
          ,style="filled,solid"];
        7 [label=nx1
          ,shape=box
          ,fillcolor=goldenrod
          ,style="filled,solid"];
        8 [label=nx2
          ,shape=box
          ,fillcolor=goldenrod
          ,style="filled,solid"];
        9 [label=rel
          ,shape=box
          ,fillcolor=goldenrod
          ,style="filled,solid"];
        10 [label=useBy
           ,shape=box
           ,fillcolor=goldenrod
           ,style="filled,solid"];
        11 [label=zp
           ,shape=box
           ,fillcolor=goldenrod
           ,style="filled,solid"];
        12 [label=zpx
           ,shape=box
           ,fillcolor=goldenrod
           ,style="filled,solid"];
    }
    subgraph "cluster_MOS6502-Combinator" {
        graph [label="MOS6502.Combinator"
              ,style=filled
              ,fillcolor=lavender];
        13 [label=forMap
           ,shape=box
           ,fillcolor=goldenrod
           ,style="filled,solid"];
    }
    subgraph "cluster_MOS6502-Construct" {
        graph [label="MOS6502.Construct"
              ,style=filled
              ,fillcolor=lavender];
        14 [label=cpu
           ,shape=box
           ,fillcolor=gold
           ,style="filled,solid"];
    }
    subgraph "cluster_MOS6502-Flag" {
        graph [label="MOS6502.Flag"
              ,style=filled
              ,fillcolor=lavender];
        15 [label=b
           ,shape=box
           ,fillcolor=gold
           ,style="filled,solid"];
        16 [label=c
           ,shape=box
           ,fillcolor=goldenrod
           ,style="filled,solid"];
        17 [label=d
           ,shape=box
           ,fillcolor=goldenrod
           ,style="filled,solid"];
        18 [label=i
           ,shape=box
           ,fillcolor=goldenrod
           ,style="filled,solid"];
        19 [label=n
           ,shape=box
           ,fillcolor=goldenrod
           ,style="filled,solid"];
        20 [label=nCheck
           ,shape=box
           ,fillcolor=goldenrod
           ,style="filled,solid"];
        21 [label=v
           ,shape=box
           ,fillcolor=goldenrod
           ,style="filled,solid"];
        22 [label=z
           ,shape=box
           ,fillcolor=goldenrod
           ,style="filled,solid"];
        23 [label=zCheck
           ,shape=box
           ,fillcolor=goldenrod
           ,style="filled,solid"];
    }
    subgraph "cluster_MOS6502-Read" {
        graph [label="MOS6502.Read"
              ,style=filled
              ,fillcolor=lavender];
        24 [label=branch
           ,shape=box
           ,fillcolor=goldenrod
           ,style="filled,solid"];
        25 [label=checked
           ,shape=box
           ,fillcolor=goldenrod
           ,style="filled,solid"];
        26 [label=dec
           ,shape=box
           ,fillcolor=goldenrod
           ,style="filled,solid"];
        27 [label=decR
           ,shape=box
           ,fillcolor=goldenrod
           ,style="filled,solid"];
        28 [label=enum
           ,shape=box
           ,fillcolor=goldenrod
           ,style="filled,solid"];
        29 [label=enumR
           ,shape=box
           ,fillcolor=goldenrod
           ,style="filled,solid"];
        30 [label=go
           ,shape=box
           ,fillcolor=gold
           ,style="filled,solid"];
        31 [label=inc
           ,shape=box
           ,fillcolor=goldenrod
           ,style="filled,solid"];
        32 [label=incR
           ,shape=box
           ,fillcolor=goldenrod
           ,style="filled,solid"];
        33 [label=lda
           ,shape=box
           ,fillcolor=goldenrod
           ,style="filled,solid"];
        34 [label=op
           ,shape=box
           ,fillcolor=goldenrod
           ,style="filled,solid"];
        35 [label=transfer
           ,shape=box
           ,fillcolor=goldenrod
           ,style="filled,solid"];
    }
    subgraph "cluster_MOS6502-Type" {
        graph [label="MOS6502.Type"
              ,style=filled
              ,fillcolor=lavender];
        36 [label="Data: CPU"
           ,shape=box3d
           ,fillcolor=goldenrod
           ,style="filled,solid"];
        45 [label=fromDByte
           ,shape=box
           ,fillcolor=gold
           ,style="filled,solid"];
        46 [label=noPP
           ,shape=box
           ,fillcolor=goldenrod
           ,style="filled,solid"];
        47 [label=page
           ,shape=box
           ,fillcolor=goldenrod
           ,style="filled,solid"];
        48 [label=toDByte
           ,shape=box
           ,fillcolor=goldenrod
           ,style="filled,solid"];
        49 [label=withPP
           ,shape=box
           ,fillcolor=goldenrod
           ,style="filled,solid"];
    }
    2 -> 8 [penwidth=1,color=black];
    3 -> 5 [penwidth=1,color=black];
    4 -> 5 [penwidth=1,color=black];
    5 -> 8 [penwidth=1,color=black];
    5 -> 47 [penwidth=1.6931471805599454
            ,color=black];
    6 -> 7 [penwidth=1,color=black];
    7 -> 10 [penwidth=1
            ,color=black];
    8 -> 7 [penwidth=1.6931471805599454
           ,color=black];
    8 -> 48 [penwidth=1
            ,color=black];
    9 -> 47 [penwidth=1.6931471805599454
            ,color=black];
    11 -> 6 [penwidth=1
            ,color=black];
    12 -> 1 [penwidth=1
            ,color=black];
    12 -> 6 [penwidth=1
            ,color=black];
    14 -> 36 [penwidth=3.1972245773362196
             ,color=chartreuse];
    20 -> 19 [penwidth=1
             ,color=black];
    23 -> 22 [penwidth=1
             ,color=black];
    24 -> 9 [penwidth=1
            ,color=black];
    24 -> 10 [penwidth=1
             ,color=black];
    25 -> 13 [penwidth=1
             ,color=black];
    25 -> 20 [penwidth=1
             ,color=black];
    25 -> 23 [penwidth=1
             ,color=black];
    26 -> 28 [penwidth=1
             ,color=black];
    27 -> 29 [penwidth=1
             ,color=black];
    28 -> 25 [penwidth=1
             ,color=black];
    29 -> 25 [penwidth=1
             ,color=black];
    30 -> 7 [penwidth=1
            ,color=black];
    30 -> 30 [penwidth=1
             ,color=black];
    30 -> 34 [penwidth=1
             ,color=black];
    31 -> 28 [penwidth=1
             ,color=black];
    32 -> 29 [penwidth=1
             ,color=black];
    33 -> 25 [penwidth=1
             ,color=black];
    34 -> 2 [penwidth=2.09861228866811
            ,color=black];
    34 -> 3 [penwidth=2.09861228866811
            ,color=black];
    34 -> 4 [penwidth=1
            ,color=black];
    34 -> 6 [penwidth=1
            ,color=black];
    34 -> 11 [penwidth=2.09861228866811
             ,color=black];
    34 -> 12 [penwidth=2.09861228866811
             ,color=black];
    34 -> 16 [penwidth=2.386294361119891
             ,color=black];
    34 -> 17 [penwidth=1.6931471805599454
             ,color=black];
    34 -> 18 [penwidth=1.6931471805599454
             ,color=black];
    34 -> 19 [penwidth=1.6931471805599454
             ,color=black];
    34 -> 21 [penwidth=2.09861228866811
             ,color=black];
    34 -> 22 [penwidth=1.6931471805599454
             ,color=black];
    34 -> 24 [penwidth=3.0794415416798357
             ,color=black];
    34 -> 26 [penwidth=2.386294361119891
             ,color=black];
    34 -> 27 [penwidth=1.6931471805599454
             ,color=black];
    34 -> 31 [penwidth=2.386294361119891
             ,color=black];
    34 -> 32 [penwidth=1.6931471805599454
             ,color=black];
    34 -> 33 [penwidth=2.791759469228055
             ,color=black];
    34 -> 35 [penwidth=2.791759469228055
             ,color=black];
    34 -> 46 [penwidth=1.6931471805599454
             ,color=black];
    34 -> 49 [penwidth=1.6931471805599454
             ,color=black];
    35 -> 25 [penwidth=1
             ,color=black];
}
