<?xml version="1.0" encoding="UTF-8" standalone="no"?>
<!DOCTYPE svg PUBLIC "-//W3C//DTD SVG 1.1//EN"
 "http://www.w3.org/Graphics/SVG/1.1/DTD/svg11.dtd">
<!-- Generated by graphviz version 2.34.0 (20140209.1721)
 -->
<!-- Title: Levels within MOS6502.Read Pages: 1 -->
<svg width="572pt" height="388pt"
 viewBox="0.00 0.00 572.00 388.00" xmlns="http://www.w3.org/2000/svg" xmlns:xlink="http://www.w3.org/1999/xlink">
<g id="graph0" class="graph" transform="scale(1 1) rotate(0) translate(4 384)">
<title>Levels within MOS6502.Read</title>
<polygon fill="white" stroke="white" points="-4,4 -4,-384 568,-384 568,4 -4,4"/>
<g id="clust1" class="cluster"><title>cluster_0</title>
<polygon fill="lavender" stroke="black" points="8,-8 8,-372 556,-372 556,-8 8,-8"/>
<text text-anchor="middle" x="282" y="-354" font-family="Times,serif" font-size="14.00">Exported root entities</text>
</g>
<!-- 1 -->
<g id="node1" class="node"><title>1</title>
<polygon fill="goldenrod" stroke="black" stroke-width="2" points="112.067,-196 15.9326,-196 15.9326,-160 112.067,-160 112.067,-196"/>
<text text-anchor="middle" x="64" y="-172.4" font-family="Times,serif" font-size="14.00">branch</text>
</g>
<!-- 2 -->
<g id="node2" class="node"><title>2</title>
<polygon fill="goldenrod" stroke="black" stroke-width="2" points="390.392,-52 287.608,-52 287.608,-16 390.392,-16 390.392,-52"/>
<text text-anchor="middle" x="339" y="-28.4" font-family="Times,serif" font-size="14.00">checked</text>
</g>
<!-- 3 -->
<g id="node3" class="node"><title>3</title>
<polygon fill="goldenrod" stroke="black" stroke-width="2" points="207.57,-196 130.43,-196 130.43,-160 207.57,-160 207.57,-196"/>
<text text-anchor="middle" x="169" y="-172.4" font-family="Times,serif" font-size="14.00">dec</text>
</g>
<!-- 5 -->
<g id="node5" class="node"><title>5</title>
<polygon fill="goldenrod" stroke="black" stroke-width="2" points="219.327,-124 130.673,-124 130.673,-88 219.327,-88 219.327,-124"/>
<text text-anchor="middle" x="175" y="-100.4" font-family="Times,serif" font-size="14.00">enum</text>
</g>
<!-- 3&#45;&gt;5 -->
<g id="edge1" class="edge"><title>3&#45;&gt;5</title>
<path fill="none" stroke="black" d="M170.483,-159.697C171.144,-151.983 171.939,-142.712 172.676,-134.112"/>
<polygon fill="black" stroke="black" points="176.167,-134.367 173.534,-124.104 169.193,-133.769 176.167,-134.367"/>
</g>
<!-- 4 -->
<g id="node4" class="node"><title>4</title>
<polygon fill="goldenrod" stroke="black" stroke-width="2" points="405.075,-196 318.925,-196 318.925,-160 405.075,-160 405.075,-196"/>
<text text-anchor="middle" x="362" y="-172.4" font-family="Times,serif" font-size="14.00">decR</text>
</g>
<!-- 6 -->
<g id="node6" class="node"><title>6</title>
<polygon fill="goldenrod" stroke="black" stroke-width="2" points="336.332,-124 237.668,-124 237.668,-88 336.332,-88 336.332,-124"/>
<text text-anchor="middle" x="287" y="-100.4" font-family="Times,serif" font-size="14.00">enumR</text>
</g>
<!-- 4&#45;&gt;6 -->
<g id="edge2" class="edge"><title>4&#45;&gt;6</title>
<path fill="none" stroke="black" d="M343.461,-159.697C334.197,-151.05 322.838,-140.449 312.743,-131.027"/>
<polygon fill="black" stroke="black" points="315.025,-128.369 305.326,-124.104 310.249,-133.486 315.025,-128.369"/>
</g>
<!-- 5&#45;&gt;2 -->
<g id="edge3" class="edge"><title>5&#45;&gt;2</title>
<path fill="none" stroke="black" d="M215.119,-87.8761C237.638,-78.2641 265.918,-66.1934 289.771,-56.0125"/>
<polygon fill="black" stroke="black" points="291.188,-59.2131 299.011,-52.0683 288.44,-52.775 291.188,-59.2131"/>
</g>
<!-- 6&#45;&gt;2 -->
<g id="edge4" class="edge"><title>6&#45;&gt;2</title>
<path fill="none" stroke="black" d="M299.854,-87.6966C306.025,-79.3893 313.537,-69.2771 320.324,-60.1407"/>
<polygon fill="black" stroke="black" points="323.14,-62.2189 326.294,-52.1043 317.521,-58.0446 323.14,-62.2189"/>
</g>
<!-- 7 -->
<g id="node7" class="node"><title>7</title>
<polygon fill="gold" stroke="black" stroke-width="2" points="398,-340 326,-340 326,-304 398,-304 398,-340"/>
<text text-anchor="middle" x="362" y="-316.4" font-family="Times,serif" font-size="14.00">go</text>
</g>
<!-- 7&#45;&gt;7 -->
<g id="edge5" class="edge"><title>7&#45;&gt;7</title>
<path fill="none" stroke="black" d="M398.087,-335.433C408.221,-334.845 416,-330.367 416,-322 416,-316.771 412.961,-313.06 408.208,-310.869"/>
<polygon fill="black" stroke="black" points="408.615,-307.373 398.087,-308.567 407.062,-314.198 408.615,-307.373"/>
</g>
<!-- 11 -->
<g id="node11" class="node"><title>11</title>
<polygon fill="goldenrod" stroke="black" stroke-width="2" points="398,-268 326,-268 326,-232 398,-232 398,-268"/>
<text text-anchor="middle" x="362" y="-244.4" font-family="Times,serif" font-size="14.00">op</text>
</g>
<!-- 7&#45;&gt;11 -->
<g id="edge6" class="edge"><title>7&#45;&gt;11</title>
<path fill="none" stroke="chartreuse" d="M362,-303.697C362,-295.983 362,-286.712 362,-278.112"/>
<polygon fill="chartreuse" stroke="chartreuse" points="365.5,-278.104 362,-268.104 358.5,-278.104 365.5,-278.104"/>
</g>
<!-- 8 -->
<g id="node8" class="node"><title>8</title>
<polygon fill="goldenrod" stroke="black" stroke-width="2" points="300.327,-196 225.673,-196 225.673,-160 300.327,-160 300.327,-196"/>
<text text-anchor="middle" x="263" y="-172.4" font-family="Times,serif" font-size="14.00">inc</text>
</g>
<!-- 8&#45;&gt;5 -->
<g id="edge7" class="edge"><title>8&#45;&gt;5</title>
<path fill="none" stroke="black" d="M241.247,-159.697C230.164,-150.881 216.526,-140.032 204.51,-130.474"/>
<polygon fill="black" stroke="black" points="206.507,-127.59 196.503,-124.104 202.15,-133.069 206.507,-127.59"/>
</g>
<!-- 9 -->
<g id="node9" class="node"><title>9</title>
<polygon fill="goldenrod" stroke="black" stroke-width="2" points="508.332,-196 423.668,-196 423.668,-160 508.332,-160 508.332,-196"/>
<text text-anchor="middle" x="466" y="-172.4" font-family="Times,serif" font-size="14.00">incR</text>
</g>
<!-- 9&#45;&gt;6 -->
<g id="edge8" class="edge"><title>9&#45;&gt;6</title>
<path fill="none" stroke="black" d="M423.579,-160.411C398.627,-150.653 366.849,-138.226 340.225,-127.814"/>
<polygon fill="black" stroke="black" points="341.26,-124.461 330.672,-124.078 338.711,-130.98 341.26,-124.461"/>
</g>
<!-- 10 -->
<g id="node10" class="node"><title>10</title>
<polygon fill="goldenrod" stroke="black" stroke-width="2" points="429.327,-124 354.673,-124 354.673,-88 429.327,-88 429.327,-124"/>
<text text-anchor="middle" x="392" y="-100.4" font-family="Times,serif" font-size="14.00">lda</text>
</g>
<!-- 10&#45;&gt;2 -->
<g id="edge9" class="edge"><title>10&#45;&gt;2</title>
<path fill="none" stroke="black" d="M378.899,-87.6966C372.609,-79.3893 364.953,-69.2771 358.035,-60.1407"/>
<polygon fill="black" stroke="black" points="360.777,-57.9642 351.95,-52.1043 355.196,-62.1897 360.777,-57.9642"/>
</g>
<!-- 11&#45;&gt;1 -->
<g id="edge10" class="edge"><title>11&#45;&gt;1</title>
<path fill="none" stroke="black" stroke-width="3.07944" d="M325.873,-241.917C280.508,-232.834 200.107,-216.114 122.123,-196.198"/>
<polygon fill="black" stroke="black" points="122.689,-192.73 112.133,-193.626 120.944,-199.509 122.689,-192.73"/>
</g>
<!-- 11&#45;&gt;3 -->
<g id="edge11" class="edge"><title>11&#45;&gt;3</title>
<path fill="none" stroke="black" stroke-width="2.38629" d="M325.698,-235.834C294.989,-224.695 250.737,-208.645 217.086,-196.44"/>
<polygon fill="black" stroke="black" points="218.048,-193.066 207.453,-192.947 215.661,-199.647 218.048,-193.066"/>
</g>
<!-- 11&#45;&gt;4 -->
<g id="edge12" class="edge"><title>11&#45;&gt;4</title>
<path fill="none" stroke="black" stroke-width="1.69315" d="M362,-231.697C362,-223.983 362,-214.712 362,-206.112"/>
<polygon fill="black" stroke="black" points="365.5,-206.104 362,-196.104 358.5,-206.104 365.5,-206.104"/>
</g>
<!-- 11&#45;&gt;8 -->
<g id="edge13" class="edge"><title>11&#45;&gt;8</title>
<path fill="none" stroke="black" stroke-width="2.38629" d="M337.782,-231.876C325.077,-222.893 309.336,-211.763 295.577,-202.034"/>
<polygon fill="black" stroke="black" points="297.497,-199.105 287.311,-196.19 293.456,-204.821 297.497,-199.105"/>
</g>
<!-- 11&#45;&gt;9 -->
<g id="edge14" class="edge"><title>11&#45;&gt;9</title>
<path fill="none" stroke="black" stroke-width="1.69315" d="M387.441,-231.876C400.787,-222.893 417.324,-211.763 431.778,-202.034"/>
<polygon fill="black" stroke="black" points="434.119,-204.677 440.461,-196.19 430.211,-198.87 434.119,-204.677"/>
</g>
<!-- 11&#45;&gt;10 -->
<g id="edge15" class="edge"><title>11&#45;&gt;10</title>
<path fill="none" stroke="black" stroke-width="2.79176" d="M398.17,-247.999C434.914,-244.817 490.123,-233.595 517,-196 526.305,-182.984 525.834,-173.34 517,-160 512.262,-152.845 472.466,-136.68 439.03,-124.071"/>
<polygon fill="black" stroke="black" points="439.947,-120.677 429.355,-120.453 437.495,-127.234 439.947,-120.677"/>
</g>
<!-- 12 -->
<g id="node12" class="node"><title>12</title>
<polygon fill="goldenrod" stroke="black" stroke-width="2" points="548.065,-124 447.935,-124 447.935,-88 548.065,-88 548.065,-124"/>
<text text-anchor="middle" x="498" y="-100.4" font-family="Times,serif" font-size="14.00">transfer</text>
</g>
<!-- 11&#45;&gt;12 -->
<g id="edge16" class="edge"><title>11&#45;&gt;12</title>
<path fill="none" stroke="black" stroke-width="2.79176" d="M398.208,-248.729C436.772,-246.259 496.145,-235.725 525,-196 538.599,-177.279 528.512,-151.628 516.996,-132.673"/>
<polygon fill="black" stroke="black" points="519.89,-130.702 511.506,-124.225 514.02,-134.517 519.89,-130.702"/>
</g>
<!-- 12&#45;&gt;2 -->
<g id="edge17" class="edge"><title>12&#45;&gt;2</title>
<path fill="none" stroke="black" d="M459.104,-87.8761C437.368,-78.3066 410.096,-66.3001 387.036,-56.1478"/>
<polygon fill="black" stroke="black" points="388.332,-52.8944 377.769,-52.0683 385.511,-59.301 388.332,-52.8944"/>
</g>
</g>
</svg>
