digraph "Diagram of: MOS6502.Read" {
    node [margin="0.4,0.1"
         ,style=filled];
    1 [label=branch
      ,shape=box
      ,fillcolor=goldenrod
      ,style="filled,bold"];
    2 [label=checked
      ,shape=box
      ,fillcolor=goldenrod
      ,style="filled,bold"];
    3 [label=dec
      ,shape=box
      ,fillcolor=goldenrod
      ,style="filled,bold"];
    4 [label=decR
      ,shape=box
      ,fillcolor=goldenrod
      ,style="filled,bold"];
    5 [label=enum
      ,shape=box
      ,fillcolor=goldenrod
      ,style="filled,bold"];
    6 [label=enumR
      ,shape=box
      ,fillcolor=goldenrod
      ,style="filled,bold"];
    7 [label=go
      ,shape=box
      ,fillcolor=gold
      ,style="filled,bold"];
    8 [label=inc
      ,shape=box
      ,fillcolor=goldenrod
      ,style="filled,bold"];
    9 [label=incR
      ,shape=box
      ,fillcolor=goldenrod
      ,style="filled,bold"];
    10 [label=lda
       ,shape=box
       ,fillcolor=goldenrod
       ,style="filled,bold"];
    11 [label=op
       ,shape=box
       ,fillcolor=goldenrod
       ,style="filled,bold"];
    12 [label=transfer
       ,shape=box
       ,fillcolor=goldenrod
       ,style="filled,bold"];
    3 -> 5 [penwidth=1,color=black];
    4 -> 6 [penwidth=1,color=black];
    5 -> 2 [penwidth=1,color=black];
    6 -> 2 [penwidth=1,color=black];
    7 -> 7 [penwidth=1,color=black];
    7 -> 11 [penwidth=1
            ,color=chartreuse];
    8 -> 5 [penwidth=1,color=black];
    9 -> 6 [penwidth=1,color=black];
    10 -> 2 [penwidth=1
            ,color=black];
    11 -> 1 [penwidth=3.0794415416798357
            ,color=black];
    11 -> 3 [penwidth=2.386294361119891
            ,color=black];
    11 -> 4 [penwidth=1.6931471805599454
            ,color=black];
    11 -> 8 [penwidth=2.386294361119891
            ,color=black];
    11 -> 9 [penwidth=1.6931471805599454
            ,color=black];
    11 -> 10 [penwidth=2.791759469228055
             ,color=black];
    11 -> 12 [penwidth=2.791759469228055
             ,color=black];
    12 -> 2 [penwidth=1
            ,color=black];
}
